{
  "count": 33,
  "next": "/api/v2/role_definitions/?order_by=name&page=2&page_size=10",
  "previous": null,
  "results": [
    {
      "id": 1,
      "url": "/api/v2/role_definitions/1/",
      "related": {
        "team_assignments": "/api/v2/role_definitions/1/team_assignments/",
        "user_assignments": "/api/v2/role_definitions/1/user_assignments/"
      },
      "summary_fields": {},
      "permissions": [
        "awx.change_credential",
        "awx.delete_credential",
        "awx.use_credential",
        "awx.view_credential"
      ],
      "content_type": "awx.credential",
      "modified": "2024-05-26T07:19:20.200581Z",
      "created": "2024-05-26T07:19:20.200562Z",
      "name": "Credential Admin",
      "description": "Has all permissions to a single credential",
      "managed": true,
      "modified_by": null,
      "created_by": null
    },
    {
      "id": 3,
      "url": "/api/v2/role_definitions/3/",
      "related": {
        "team_assignments": "/api/v2/role_definitions/3/team_assignments/",
        "user_assignments": "/api/v2/role_definitions/3/user_assignments/"
      },
      "summary_fields": {},
      "permissions": ["awx.use_credential", "awx.view_credential"],
      "content_type": "awx.credential",
      "modified": "2024-05-26T07:19:20.220146Z",
      "created": "2024-05-26T07:19:20.220127Z",
      "name": "Credential Use",
      "description": "Has use permissions to a single credential",
      "managed": true,
      "modified_by": null,
      "created_by": null
    },
    {
      "id": 12,
      "url": "/api/v2/role_definitions/12/",
      "related": {
        "team_assignments": "/api/v2/role_definitions/12/team_assignments/",
        "user_assignments": "/api/v2/role_definitions/12/user_assignments/"
      },
      "summary_fields": {},
      "permissions": [
        "awx.change_executionenvironment",
        "awx.delete_executionenvironment",
        "awx.view_executionenvironment"
      ],
      "content_type": "awx.executionenvironment",
      "modified": "2024-05-26T07:19:20.291518Z",
      "created": "2024-05-26T07:19:20.291498Z",
      "name": "ExecutionEnvironment Admin",
      "description": "Has all permissions to a single execution environment",
      "managed": true,
      "modified_by": null,
      "created_by": null
    },
    {
      "id": 14,
      "url": "/api/v2/role_definitions/14/",
      "related": {
        "team_assignments": "/api/v2/role_definitions/14/team_assignments/",
        "user_assignments": "/api/v2/role_definitions/14/user_assignments/"
      },
      "summary_fields": {},
      "permissions": [
        "awx.change_instancegroup",
        "awx.delete_instancegroup",
        "awx.use_instancegroup",
        "awx.view_instancegroup"
      ],
      "content_type": "awx.instancegroup",
      "modified": "2024-05-26T07:19:20.304930Z",
      "created": "2024-05-26T07:19:20.304915Z",
      "name": "InstanceGroup Admin",
      "description": "Has all permissions to a single instance group",
      "managed": true,
      "modified_by": null,
      "created_by": null
    },
    {
      "id": 16,
      "url": "/api/v2/role_definitions/16/",
      "related": {
        "team_assignments": "/api/v2/role_definitions/16/team_assignments/",
        "user_assignments": "/api/v2/role_definitions/16/user_assignments/"
      },
      "summary_fields": {},
      "permissions": ["awx.use_instancegroup", "awx.view_instancegroup"],
      "content_type": "awx.instancegroup",
      "modified": "2024-05-26T07:19:20.316284Z",
      "created": "2024-05-26T07:19:20.316270Z",
      "name": "InstanceGroup Use",
      "description": "Has use permissions to a single instance group",
      "managed": true,
      "modified_by": null,
      "created_by": null
    },
    {
      "id": 24,
      "url": "/api/v2/role_definitions/24/",
      "related": {
        "team_assignments": "/api/v2/role_definitions/24/team_assignments/",
        "user_assignments": "/api/v2/role_definitions/24/user_assignments/"
      },
      "summary_fields": {},
      "permissions": ["awx.adhoc_inventory", "awx.view_inventory"],
      "content_type": "awx.inventory",
      "modified": "2024-05-26T07:19:20.379316Z",
      "created": "2024-05-26T07:19:20.379295Z",
      "name": "Inventory Adhoc",
      "description": "Has adhoc permissions to a single inventory",
      "managed": true,
      "modified_by": null,
      "created_by": null
    },
    {
      "id": 21,
      "url": "/api/v2/role_definitions/21/",
      "related": {
        "team_assignments": "/api/v2/role_definitions/21/team_assignments/",
        "user_assignments": "/api/v2/role_definitions/21/user_assignments/"
      },
      "summary_fields": {},
      "permissions": [
        "awx.adhoc_inventory",
        "awx.change_inventory",
        "awx.delete_inventory",
        "awx.update_inventory",
        "awx.use_inventory",
        "awx.view_inventory"
      ],
      "content_type": "awx.inventory",
      "modified": "2024-05-26T07:19:20.351890Z",
      "created": "2024-05-26T07:19:20.351870Z",
      "name": "Inventory Admin",
      "description": "Has all permissions to a single inventory",
      "managed": true,
      "modified_by": null,
      "created_by": null
    },
    {
      "id": 33,
      "url": "/api/v2/role_definitions/33/",
      "related": {
        "team_assignments": "/api/v2/role_definitions/33/team_assignments/",
        "user_assignments": "/api/v2/role_definitions/33/user_assignments/"
      },
      "summary_fields": {},
      "permissions": ["awx.view_inventory"],
      "content_type": "awx.inventory",
      "modified": "2024-05-27T14:58:40.652901Z",
      "created": "2024-05-27T14:58:40.652942Z",
      "name": "Inventory Read Compat",
      "description": "Has Read permission to Inventory for backwards API compatibility",
      "managed": false,
      "modified_by": null,
      "created_by": null
    },
    {
      "id": 23,
      "url": "/api/v2/role_definitions/23/",
      "related": {
        "team_assignments": "/api/v2/role_definitions/23/team_assignments/",
        "user_assignments": "/api/v2/role_definitions/23/user_assignments/"
      },
      "summary_fields": {},
      "permissions": ["awx.use_inventory", "awx.view_inventory"],
      "content_type": "awx.inventory",
      "modified": "2024-05-26T07:19:20.369082Z",
      "created": "2024-05-26T07:19:20.369063Z",
      "name": "Inventory Use",
      "description": "Has use permissions to a single inventory",
      "managed": true,
      "modified_by": null,
      "created_by": null
    },
    {
      "id": 7,
      "url": "/api/v2/role_definitions/7/",
      "related": {
        "team_assignments": "/api/v2/role_definitions/7/team_assignments/",
        "user_assignments": "/api/v2/role_definitions/7/user_assignments/"
      },
      "summary_fields": {},
      "permissions": [
        "awx.change_jobtemplate",
        "awx.delete_jobtemplate",
        "awx.execute_jobtemplate",
        "awx.view_jobtemplate"
      ],
      "content_type": "awx.jobtemplate",
      "modified": "2024-05-26T07:19:20.250406Z",
      "created": "2024-05-26T07:19:20.250379Z",
      "name": "JobTemplate Admin",
      "description": "Has all permissions to a single job template",
      "managed": true,
      "modified_by": null,
      "created_by": null
    }
  ]
}
