{
  "count": 12,
  "next": "/api/eda/v1/projects/?page=2&page_size=10",
  "previous": null,
  "page_size": 10,
  "page": 1,
  "results": [
    {
      "name": "EDA Credential 1",
      "description": "This is a container registry credential",
      "username": "admin",
      "credential_type": "Container Registry",
      "id": 100,
      "created_at": "2023-07-28T18:29:28.512273Z",
      "modified_at": "2023-07-28T18:29:28.512286Z"
    },
    {
      "name": "EDA Credential 2",
      "description": "This is a container registry credential",
      "username": "admin",
      "credential_type": "Container Registry",
      "id": 101,
      "created_at": "2023-07-28T18:29:28.512273Z",
      "modified_at": "2023-07-28T18:29:28.512286Z"
    },
    {
      "name": "EDA Credential 3",
      "description": "This is a container registry credential",
      "username": "admin",
      "credential_type": "Container Registry",
      "id": 102,
      "created_at": "2023-07-28T18:29:28.512273Z",
      "modified_at": "2023-07-28T18:29:28.512286Z"
    },
    {
      "name": "EDA Credential 4",
      "description": "This is a container registry credential",
      "username": "admin",
      "credential_type": "Container Registry",
      "id": 103,
      "created_at": "2023-07-28T18:29:28.512273Z",
      "modified_at": "2023-07-28T18:29:28.512286Z"
    },
    {
      "name": "EDA Credential 5",
      "description": "This is a container registry credential",
      "username": "admin",
      "credential_type": "Container Registry",
      "id": 104,
      "created_at": "2023-07-28T18:29:28.512273Z",
      "modified_at": "2023-07-28T18:29:28.512286Z"
    },
    {
      "name": "EDA Credential 6",
      "description": "This is a container registry credential",
      "username": "admin",
      "credential_type": "Container Registry",
      "id": 105,
      "created_at": "2023-07-28T18:29:28.512273Z",
      "modified_at": "2023-07-28T18:29:28.512286Z"
    },
    {
      "name": "EDA Credential 7",
      "description": "This is a container registry credential",
      "username": "admin",
      "credential_type": "Container Registry",
      "id": 106,
      "created_at": "2023-07-28T18:29:28.512273Z",
      "modified_at": "2023-07-28T18:29:28.512286Z"
    },
    {
      "name": "EDA Credential 8",
      "description": "This is a container registry credential",
      "username": "admin",
      "credential_type": "Container Registry",
      "id": 107,
      "created_at": "2023-07-28T18:29:28.512273Z",
      "modified_at": "2023-07-28T18:29:28.512286Z"
    },
    {
      "name": "EDA Credential 9",
      "description": "This is a container registry credential",
      "username": "admin",
      "credential_type": "Container Registry",
      "id": 108,
      "created_at": "2023-07-28T18:29:28.512273Z",
      "modified_at": "2023-07-28T18:29:28.512286Z"
    },
    {
      "name": "EDA Credential 10",
      "description": "This is a container registry credential",
      "username": "admin",
      "credential_type": "Container Registry",
      "id": 109,
      "created_at": "2023-07-28T18:29:28.512273Z",
      "modified_at": "2023-07-28T18:29:28.512286Z"
    }
  ]
}
