{
  "count": 12,
  "next": "/api/eda/v1/activations/?page=2&page_size=10",
  "previous": null,
  "page_size": 10,
  "page": 1,
  "results": [
    {
      "name": "Event stream 1",
      "source_args": "payload:\n- i: 1\n- i: 2\n- name: Fred\nstartup_delay: 60\n",
      "source_type": "ansible.eda.generic",
      "channel_name": "eda_155678ed_fdc0_4c9d_b69d_4e974de90c6a",
      "is_enabled": true,
      "status": "completed",
      "status_message": "Pod activation-job-1-1 has successfully exited. Activation completed successfully. No restart policy is applied.",
      "decision_environment_id": 1,
      "user": "admin",
      "credentials": [],
      "id": 1,
      "created_at": "2024-02-12T17:43:46.439835Z",
      "modified_at": "2024-02-12T17:44:55.307697Z"
    },
    {
      "name": "Ev2",
      "source_args": "payload:\n- i: 1\n- i: 2\n- name: Fred\nstartup_delay: 60\n",
      "source_type": "ansible.eda.generic",
      "channel_name": "eda_155678ed_fdc0_4c9d_b69d_4e974de90c6a",
      "is_enabled": true,
      "status": "completed",
      "status_message": "Pod activation-job-1-1 has successfully exited. Activation completed successfully. No restart policy is applied.",
      "decision_environment_id": 1,
      "user": "admin",
      "credentials": [],
      "id": 2,
      "created_at": "2024-02-12T17:43:46.439835Z",
      "modified_at": "2024-02-12T17:44:55.307697Z"
    },
    {
      "name": "Ev3",
      "source_args": "payload:\n- i: 1\n- i: 2\n- name: Fred\nstartup_delay: 60\n",
      "source_type": "ansible.eda.generic",
      "channel_name": "eda_155678ed_fdc0_4c9d_b69d_4e974de90c6a",
      "is_enabled": true,
      "status": "completed",
      "status_message": "Pod activation-job-1-1 has successfully exited. Activation completed successfully. No restart policy is applied.",
      "decision_environment_id": 1,
      "user": "admin",
      "credentials": [],
      "id": 3,
      "created_at": "2024-02-12T17:43:46.439835Z",
      "modified_at": "2024-02-12T17:44:55.307697Z"
    },
    {
      "name": "Ev4",
      "source_args": "payload:\n- i: 1\n- i: 2\n- name: Fred\nstartup_delay: 60\n",
      "source_type": "ansible.eda.generic",
      "channel_name": "eda_155678ed_fdc0_4c9d_b69d_4e974de90c6a",
      "is_enabled": true,
      "status": "completed",
      "status_message": "Pod activation-job-1-1 has successfully exited. Activation completed successfully. No restart policy is applied.",
      "decision_environment_id": 1,
      "user": "admin",
      "credentials": [],
      "id": 4,
      "created_at": "2024-02-12T17:43:46.439835Z",
      "modified_at": "2024-02-12T17:44:55.307697Z"
    },
    {
      "name": "Ev5",
      "source_args": "payload:\n- i: 1\n- i: 2\n- name: Fred\nstartup_delay: 60\n",
      "source_type": "ansible.eda.generic",
      "channel_name": "eda_155678ed_fdc0_4c9d_b69d_4e974de90c6a",
      "is_enabled": true,
      "status": "completed",
      "status_message": "Pod activation-job-1-1 has successfully exited. Activation completed successfully. No restart policy is applied.",
      "decision_environment_id": 1,
      "user": "admin",
      "credentials": [],
      "id": 5,
      "created_at": "2024-02-12T17:43:46.439835Z",
      "modified_at": "2024-02-12T17:44:55.307697Z"
    },
    {
      "name": "Ev6",
      "source_args": "payload:\n- i: 1\n- i: 2\n- name: Fred\nstartup_delay: 60\n",
      "source_type": "ansible.eda.generic",
      "channel_name": "eda_155678ed_fdc0_4c9d_b69d_4e974de90c6a",
      "is_enabled": true,
      "status": "completed",
      "status_message": "Pod activation-job-1-1 has successfully exited. Activation completed successfully. No restart policy is applied.",
      "decision_environment_id": 1,
      "user": "admin",
      "credentials": [],
      "id": 6,
      "created_at": "2024-02-12T17:43:46.439835Z",
      "modified_at": "2024-02-12T17:44:55.307697Z"
    },
    {
      "name": "Ev7",
      "source_args": "payload:\n- i: 1\n- i: 2\n- name: Fred\nstartup_delay: 60\n",
      "source_type": "ansible.eda.generic",
      "channel_name": "eda_155678ed_fdc0_4c9d_b69d_4e974de90c6a",
      "is_enabled": true,
      "status": "completed",
      "status_message": "Pod activation-job-1-1 has successfully exited. Activation completed successfully. No restart policy is applied.",
      "decision_environment_id": 1,
      "user": "admin",
      "credentials": [],
      "id": 7,
      "created_at": "2024-02-12T17:43:46.439835Z",
      "modified_at": "2024-02-12T17:44:55.307697Z"
    },
    {
      "name": "Ev8",
      "source_args": "payload:\n- i: 1\n- i: 2\n- name: Fred\nstartup_delay: 60\n",
      "source_type": "ansible.eda.generic",
      "channel_name": "eda_155678ed_fdc0_4c9d_b69d_4e974de90c6a",
      "is_enabled": true,
      "status": "completed",
      "status_message": "Pod activation-job-1-1 has successfully exited. Activation completed successfully. No restart policy is applied.",
      "decision_environment_id": 1,
      "user": "admin",
      "credentials": [],
      "id": 8,
      "created_at": "2024-02-12T17:43:46.439835Z",
      "modified_at": "2024-02-12T17:44:55.307697Z"
    },
    {
      "name": "Ev9",
      "source_args": "payload:\n- i: 1\n- i: 2\n- name: Fred\nstartup_delay: 60\n",
      "source_type": "ansible.eda.generic",
      "channel_name": "eda_155678ed_fdc0_4c9d_b69d_4e974de90c6a",
      "is_enabled": true,
      "status": "completed",
      "status_message": "Pod activation-job-1-1 has successfully exited. Activation completed successfully. No restart policy is applied.",
      "decision_environment_id": 1,
      "user": "admin",
      "credentials": [],
      "id": 9,
      "created_at": "2024-02-12T17:43:46.439835Z",
      "modified_at": "2024-02-12T17:44:55.307697Z"
    },
    {
      "name": "Ev10",
      "source_args": "payload:\n- i: 1\n- i: 2\n- name: Fred\nstartup_delay: 60\n",
      "source_type": "ansible.eda.generic",
      "channel_name": "eda_155678ed_fdc0_4c9d_b69d_4e974de90c6a",
      "is_enabled": true,
      "status": "completed",
      "status_message": "Pod activation-job-1-1 has successfully exited. Activation completed successfully. No restart policy is applied.",
      "decision_environment_id": 1,
      "user": "admin",
      "credentials": [],
      "id": 10,
      "created_at": "2024-02-12T17:43:46.439835Z",
      "modified_at": "2024-02-12T17:44:55.307697Z"
    }
  ]
}
