{
  "count": 12,
  "next": "/api/eda/v1/projects/?page=2&page_size=10",
  "previous": null,
  "page_size": 10,
  "page": 1,
  "results": [
    {
      "name": "Project 1",
      "description": "",
      "credential_id": null,
      "id": 1,
      "url": "https://github.com/ansible/ansible-ui",
      "git_hash": "a1c2b012f84de83c4a9fa5126430816bf68364b2",
      "import_state": "completed",
      "import_error": null,
      "import_task_id": "fb85fe68-75fd-4703-bd6d-2e28a417d01a",
      "created_at": "2023-07-11T20:20:42.993638Z",
      "modified_at": "2023-07-11T20:20:44.641844Z"
    },
    {
      "name": "Project 2",
      "description": "",
      "credential_id": null,
      "id": 2,
      "url": "https://github.com/ansible/ansible-ui",
      "git_hash": "a1c2b012f84de83c4a9fa5126430816bf68364b2",
      "import_state": "completed",
      "import_error": null,
      "import_task_id": "088edd9a-94bb-4e3c-aeb3-46cf7b055dac",
      "created_at": "2023-07-11T21:05:23.915805Z",
      "modified_at": "2023-07-11T21:05:25.539167Z"
    },
    {
      "name": "Sample 1",
      "description": "",
      "credential_id": null,
      "id": 3,
      "url": "https://github.com/ansible/ansible-ui",
      "git_hash": "a1c2b012f84de83c4a9fa5126430816bf68364b2",
      "import_state": "completed",
      "import_error": null,
      "import_task_id": "34ea4bd2-f294-4c4a-9458-99d4ac3e501e",
      "created_at": "2023-07-11T21:05:45.776322Z",
      "modified_at": "2023-07-11T21:05:47.757232Z"
    },
    {
      "name": "Sample 2",
      "description": "",
      "credential_id": null,
      "id": 4,
      "url": "https://github.com/ansible/ansible-ui",
      "git_hash": "a1c2b012f84de83c4a9fa5126430816bf68364b2",
      "import_state": "completed",
      "import_error": null,
      "import_task_id": "99d17900-380b-4f14-b779-20abac95c879",
      "created_at": "2023-07-11T21:05:56.233027Z",
      "modified_at": "2023-07-11T21:05:57.781653Z"
    },
    {
      "name": "Test 1",
      "description": "",
      "credential_id": null,
      "id": 5,
      "url": "https://github.com/ansible/ansible-ui",
      "git_hash": "a1c2b012f84de83c4a9fa5126430816bf68364b2",
      "import_state": "completed",
      "import_error": null,
      "import_task_id": "dc4ad86c-6227-45a9-a004-369d42845898",
      "created_at": "2023-07-11T21:06:05.441861Z",
      "modified_at": "2023-07-11T21:06:06.873478Z"
    },
    {
      "name": "Test 2",
      "description": "",
      "credential_id": null,
      "id": 6,
      "url": "https://github.com/ansible/ansible-ui",
      "git_hash": "a1c2b012f84de83c4a9fa5126430816bf68364b2",
      "import_state": "completed",
      "import_error": null,
      "import_task_id": "b161428f-9722-4044-ae5e-c8783114bd7e",
      "created_at": "2023-07-11T21:06:15.823793Z",
      "modified_at": "2023-07-11T21:06:17.333915Z"
    },
    {
      "name": "Project 3",
      "description": "",
      "credential_id": null,
      "id": 7,
      "url": "https://github.com/ansible/ansible-ui",
      "git_hash": "a1c2b012f84de83c4a9fa5126430816bf68364b2",
      "import_state": "completed",
      "import_error": null,
      "import_task_id": "1c55a859-7ac3-48f4-9a7c-8cba89d791bf",
      "created_at": "2023-07-11T21:06:26.096673Z",
      "modified_at": "2023-07-11T21:06:27.759439Z"
    },
    {
      "name": "Project 4",
      "description": "",
      "credential_id": null,
      "id": 8,
      "url": "https://github.com/ansible/ansible-ui",
      "git_hash": "a1c2b012f84de83c4a9fa5126430816bf68364b2",
      "import_state": "completed",
      "import_error": null,
      "import_task_id": "3a268f72-a7fd-45cd-8120-14d0a9989aec",
      "created_at": "2023-07-11T21:06:40.607857Z",
      "modified_at": "2023-07-11T21:06:42.015493Z"
    },
    {
      "name": "Sample 3",
      "description": "",
      "credential_id": null,
      "id": 9,
      "url": "https://github.com/ansible/ansible-ui",
      "git_hash": "a1c2b012f84de83c4a9fa5126430816bf68364b2",
      "import_state": "completed",
      "import_error": null,
      "import_task_id": "601d0b54-da2a-4a07-965a-7cc173a2b215",
      "created_at": "2023-07-11T21:06:54.402866Z",
      "modified_at": "2023-07-11T21:06:55.914936Z"
    },
    {
      "name": "Sample 4",
      "description": "",
      "credential_id": null,
      "id": 10,
      "url": "https://github.com/ansible/ansible-ui",
      "git_hash": "a1c2b012f84de83c4a9fa5126430816bf68364b2",
      "import_state": "completed",
      "import_error": null,
      "import_task_id": "a69cd2be-dd49-4816-8410-3fa515a8753b",
      "created_at": "2023-07-11T21:07:16.925371Z",
      "modified_at": "2023-07-11T21:07:17.373970Z"
    }
  ]
}
