{
  "count": 12,
  "next": "/api/eda/v1/activations/?page=2&page_size=10",
  "previous": null,
  "page_size": 10,
  "page": 1,
  "results": [
    {
      "id": 1,
      "name": "Activation 1",
      "description": "",
      "is_enabled": true,
      "status": "completed",
      "decision_environment_id": 1,
      "project_id": 1,
      "rulebook_id": 2,
      "extra_var": "i: 1\nj: 2\n",
      "restart_policy": "on-failure",
      "restart_count": 0,
      "rulebook_name": "fail.yml",
      "current_job_id": null,
      "rules_count": 1,
      "rules_fired_count": 1,
      "created_at": "2023-10-02T13:34:18.445029Z",
      "modified_at": "2023-10-02T13:34:28.742952Z",
      "status_message": "Activation has completed"
    },
    {
      "id": 2,
      "name": "Activation 2",
      "description": "",
      "is_enabled": false,
      "status": "completed",
      "decision_environment_id": 1,
      "project_id": 1,
      "rulebook_id": 2,
      "extra_var": null,
      "restart_policy": "on-failure",
      "restart_count": 0,
      "rulebook_name": "fail.yml",
      "current_job_id": null,
      "rules_count": 1,
      "rules_fired_count": 1,
      "created_at": "2023-10-02T13:34:18.445029Z",
      "modified_at": "2023-10-02T13:34:28.742952Z",
      "status_message": "Activation has completed"
    },
    {
      "id": 5,
      "name": "Activation 3",
      "description": "",
      "is_enabled": true,
      "status": "completed",
      "decision_environment_id": 1,
      "project_id": 1,
      "rulebook_id": 2,
      "extra_var": null,
      "restart_policy": "on-failure",
      "restart_count": 0,
      "rulebook_name": "fail.yml",
      "current_job_id": null,
      "rules_count": 1,
      "rules_fired_count": 1,
      "created_at": "2023-10-02T13:34:18.445029Z",
      "modified_at": "2023-10-02T13:34:28.742952Z",
      "status_message": "Activation has completed"
    },
    {
      "id": 5,
      "name": "Activation 4",
      "description": "",
      "is_enabled": true,
      "status": "completed",
      "decision_environment_id": 1,
      "project_id": 1,
      "rulebook_id": 2,
      "extra_var": null,
      "restart_policy": "on-failure",
      "restart_count": 0,
      "rulebook_name": "fail.yml",
      "current_job_id": null,
      "rules_count": 1,
      "rules_fired_count": 1,
      "created_at": "2023-10-02T13:34:18.445029Z",
      "modified_at": "2023-10-02T13:34:28.742952Z",
      "status_message": "Activation has completed"
    },
    {
      "id": 5,
      "name": "Activation 5",
      "description": "",
      "is_enabled": true,
      "status": "completed",
      "decision_environment_id": 1,
      "project_id": 1,
      "rulebook_id": 2,
      "extra_var": null,
      "restart_policy": "on-failure",
      "restart_count": 0,
      "rulebook_name": "fail.yml",
      "current_job_id": null,
      "rules_count": 1,
      "rules_fired_count": 1,
      "created_at": "2023-10-02T13:34:18.445029Z",
      "modified_at": "2023-10-02T13:34:28.742952Z",
      "status_message": "Activation has completed"
    },
    {
      "id": 5,
      "name": "Activation 6",
      "description": "",
      "is_enabled": true,
      "status": "completed",
      "decision_environment_id": 1,
      "project_id": 1,
      "rulebook_id": 2,
      "extra_var": null,
      "restart_policy": "on-failure",
      "restart_count": 0,
      "rulebook_name": "fail.yml",
      "current_job_id": null,
      "rules_count": 1,
      "rules_fired_count": 1,
      "created_at": "2023-10-02T13:34:18.445029Z",
      "modified_at": "2023-10-02T13:34:28.742952Z",
      "status_message": "Activation has completed"
    },
    {
      "id": 5,
      "name": "Activation 7",
      "description": "",
      "is_enabled": true,
      "status": "completed",
      "decision_environment_id": 1,
      "project_id": 1,
      "rulebook_id": 2,
      "extra_var": null,
      "restart_policy": "on-failure",
      "restart_count": 0,
      "rulebook_name": "fail.yml",
      "current_job_id": null,
      "rules_count": 1,
      "rules_fired_count": 1,
      "created_at": "2023-10-02T13:34:18.445029Z",
      "modified_at": "2023-10-02T13:34:28.742952Z",
      "status_message": "Activation has completed"
    },
    {
      "id": 5,
      "name": "Activation 8",
      "description": "",
      "is_enabled": true,
      "status": "completed",
      "decision_environment_id": 1,
      "project_id": 1,
      "rulebook_id": 2,
      "extra_var": null,
      "restart_policy": "on-failure",
      "restart_count": 0,
      "rulebook_name": "fail.yml",
      "current_job_id": null,
      "rules_count": 1,
      "rules_fired_count": 1,
      "created_at": "2023-10-02T13:34:18.445029Z",
      "modified_at": "2023-10-02T13:34:28.742952Z",
      "status_message": "Activation has completed"
    },
    {
      "id": 5,
      "name": "Activation 9",
      "description": "",
      "is_enabled": true,
      "status": "completed",
      "decision_environment_id": 1,
      "project_id": 1,
      "rulebook_id": 2,
      "extra_var": null,
      "restart_policy": "on-failure",
      "restart_count": 0,
      "rulebook_name": "fail.yml",
      "current_job_id": null,
      "rules_count": 1,
      "rules_fired_count": 1,
      "created_at": "2023-10-02T13:34:18.445029Z",
      "modified_at": "2023-10-02T13:34:28.742952Z",
      "status_message": "Activation has completed"
    },
    {
      "id": 5,
      "name": "Activation 10",
      "description": "",
      "is_enabled": true,
      "status": "completed",
      "decision_environment_id": 1,
      "project_id": 1,
      "rulebook_id": 2,
      "extra_var": null,
      "restart_policy": "on-failure",
      "restart_count": 0,
      "rulebook_name": "fail.yml",
      "current_job_id": null,
      "rules_count": 1,
      "rules_fired_count": 1,
      "created_at": "2023-10-02T13:34:18.445029Z",
      "modified_at": "2023-10-02T13:34:28.742952Z",
      "status_message": "Activation has completed"
    }
  ]
}
