{
  "count": 12,
  "next": "/api/eda/v1/webhooks/?page=2&page_size=10",
  "previous": null,
  "page_size": 10,
  "page": 1,
  "results": [
    {
      "name": "Webhook 1",
      "test_mode": false,
      "user": "admin",
      "hmac_algorithm": "sha256",
      "header_key": "X-Hub-Signature-256",
      "hmac_signature_prefix": "sha256=",
      "hmac_format": "hex",
      "auth_type": "hmac",
      "additional_data_headers": null,
      "id": 1,
      "url": "https://ui.eda.local:8443/abc-def-123-34567/api/eda/v1/external_webhook/123a26f5-bddd-4737-a0e7-653949ccce0a/post/",
      "type": "GitHub",
      "created_at": "2024-03-04T14:51:10.846070Z",
      "modified_at": "2024-03-04T14:51:10.846083Z",
      "test_content_type": "",
      "test_content": "",
      "test_error_message": ""
    },
    {
      "name": "Webhook 2",
      "test_mode": false,
      "user": "admin",
      "hmac_algorithm": "sha256",
      "header_key": "X-Gitlab-Token",
      "hmac_signature_prefix": "",
      "hmac_format": "hex",
      "auth_type": "token",
      "additional_data_headers": null,
      "id": 2,
      "url": "https://ui.eda.local:8443/abc-def-123-34567/api/eda/v1/external_webhook/d0073c32-561f-428b-9461-6e783f3cad4d/post/",
      "type": "GitLab",
      "created_at": "2024-03-04T14:51:28.010931Z",
      "modified_at": "2024-03-04T14:51:28.010942Z",
      "test_content_type": "",
      "test_content": "",
      "test_error_message": ""
    },
    {
      "name": "Webhook 3",
      "test_mode": false,
      "user": "admin",
      "hmac_algorithm": "sha256",
      "header_key": "Authorization",
      "hmac_signature_prefix": "",
      "hmac_format": "hex",
      "auth_type": "token",
      "additional_data_headers": null,
      "id": 3,
      "url": "https://ui.eda.local:8443/abc-def-123-34567/api/eda/v1/external_webhook/6805007c-bad8-43ce-9afe-db20f1dbf594/post/",
      "type": "Service Now",
      "created_at": "2024-03-04T14:51:45.682567Z",
      "modified_at": "2024-03-04T14:51:45.682577Z",
      "test_content_type": "",
      "test_content": "",
      "test_error_message": ""
    },
    {
      "name": "Webhook 4",
      "test_mode": false,
      "user": "admin",
      "hmac_algorithm": "sha256",
      "header_key": "X-Hub-Signature-256",
      "hmac_signature_prefix": "sha256=",
      "hmac_format": "hex",
      "auth_type": "hmac",
      "additional_data_headers": null,
      "id": 4,
      "url": "https://ui.eda.local:8443/abc-def-123-34567/api/eda/v1/external_webhook/123a26f5-bddd-4737-a0e7-653949ccce0a/post/",
      "type": "GitHub",
      "created_at": "2024-03-04T14:51:10.846070Z",
      "modified_at": "2024-03-04T14:51:10.846083Z",
      "test_content_type": "",
      "test_content": "",
      "test_error_message": ""
    },
    {
      "name": "Webhook 5",
      "test_mode": false,
      "user": "admin",
      "hmac_algorithm": "sha256",
      "header_key": "X-Gitlab-Token",
      "hmac_signature_prefix": "",
      "hmac_format": "hex",
      "auth_type": "token",
      "additional_data_headers": null,
      "id": 5,
      "url": "https://ui.eda.local:8443/abc-def-123-34567/api/eda/v1/external_webhook/d0073c32-561f-428b-9461-6e783f3cad4d/post/",
      "type": "GitLab",
      "created_at": "2024-03-04T14:51:28.010931Z",
      "modified_at": "2024-03-04T14:51:28.010942Z",
      "test_content_type": "",
      "test_content": "",
      "test_error_message": ""
    },
    {
      "name": "Webhook 6",
      "test_mode": false,
      "user": "admin",
      "hmac_algorithm": "sha256",
      "header_key": "Authorization",
      "hmac_signature_prefix": "",
      "hmac_format": "hex",
      "auth_type": "token",
      "additional_data_headers": null,
      "id": 6,
      "url": "https://ui.eda.local:8443/abc-def-123-34567/api/eda/v1/external_webhook/6805007c-bad8-43ce-9afe-db20f1dbf594/post/",
      "type": "Service Now",
      "created_at": "2024-03-04T14:51:45.682567Z",
      "modified_at": "2024-03-04T14:51:45.682577Z",
      "test_content_type": "",
      "test_content": "",
      "test_error_message": ""
    },
    {
      "name": "Webhook 7",
      "test_mode": false,
      "user": "admin",
      "hmac_algorithm": "sha256",
      "header_key": "X-Hub-Signature-256",
      "hmac_signature_prefix": "sha256=",
      "hmac_format": "hex",
      "auth_type": "hmac",
      "additional_data_headers": null,
      "id": 7,
      "url": "https://ui.eda.local:8443/abc-def-123-34567/api/eda/v1/external_webhook/123a26f5-bddd-4737-a0e7-653949ccce0a/post/",
      "type": "GitHub",
      "created_at": "2024-03-04T14:51:10.846070Z",
      "modified_at": "2024-03-04T14:51:10.846083Z",
      "test_content_type": "",
      "test_content": "",
      "test_error_message": ""
    },
    {
      "name": "Webhook 8",
      "test_mode": false,
      "user": "admin",
      "hmac_algorithm": "sha256",
      "header_key": "X-Gitlab-Token",
      "hmac_signature_prefix": "",
      "hmac_format": "hex",
      "auth_type": "token",
      "additional_data_headers": null,
      "id": 8,
      "url": "https://ui.eda.local:8443/abc-def-123-34567/api/eda/v1/external_webhook/d0073c32-561f-428b-9461-6e783f3cad4d/post/",
      "type": "GitLab",
      "created_at": "2024-03-04T14:51:28.010931Z",
      "modified_at": "2024-03-04T14:51:28.010942Z",
      "test_content_type": "",
      "test_content": "",
      "test_error_message": ""
    },
    {
      "name": "Webhook 9",
      "test_mode": false,
      "user": "admin",
      "hmac_algorithm": "sha256",
      "header_key": "Authorization",
      "hmac_signature_prefix": "",
      "hmac_format": "hex",
      "auth_type": "token",
      "additional_data_headers": null,
      "id": 9,
      "url": "https://ui.eda.local:8443/abc-def-123-34567/api/eda/v1/external_webhook/6805007c-bad8-43ce-9afe-db20f1dbf594/post/",
      "type": "Service Now",
      "created_at": "2024-03-04T14:51:45.682567Z",
      "modified_at": "2024-03-04T14:51:45.682577Z",
      "test_content_type": "",
      "test_content": "",
      "test_error_message": ""
    },
    {
      "name": "Webhook 10",
      "test_mode": false,
      "user": "admin",
      "hmac_algorithm": "sha256",
      "header_key": "Authorization",
      "hmac_signature_prefix": "",
      "hmac_format": "hex",
      "auth_type": "token",
      "additional_data_headers": null,
      "id": 10,
      "url": "https://ui.eda.local:8443/abc-def-123-34567/api/eda/v1/external_webhook/6805007c-bad8-43ce-9afe-db20f1dbf594/post/",
      "type": "Service Now",
      "created_at": "2024-03-04T14:51:45.682567Z",
      "modified_at": "2024-03-04T14:51:45.682577Z",
      "test_content_type": "",
      "test_content": "",
      "test_error_message": ""
    }
  ]
}
