{
  "count": 18,
  "next": "http://localhost:8002/api/galaxy/pulp/api/v3/roles/?limit=10&name__startswith=galaxy.&offset=10&ordering=name",
  "previous": null,
  "results": [
    {
      "pulp_href": "/api/galaxy/pulp/api/v3/roles/aba4a87c-1447-47cb-9bd3-bf9f609f18fa/",
      "pulp_created": "2023-10-11T16:00:44.179570Z",
      "name": "galaxy.ansible_repository_owner",
      "description": null,
      "permissions": [
        "ansible.add_ansiblerepository",
        "ansible.change_ansiblerepository",
        "ansible.delete_ansiblerepository",
        "ansible.manage_roles_ansiblerepository",
        "ansible.modify_ansible_repo_content",
        "ansible.repair_ansiblerepository",
        "ansible.sign_ansiblerepository",
        "ansible.view_ansiblerepository"
      ],
      "locked": true
    },
    {
      "pulp_href": "/api/galaxy/pulp/api/v3/roles/9915ca45-f055-4a96-aa70-0dfaf3f5930c/",
      "pulp_created": "2023-10-11T16:00:44.090955Z",
      "name": "galaxy.collection_admin",
      "description": null,
      "permissions": [
        "ansible.add_ansiblerepository",
        "ansible.change_ansiblerepository",
        "ansible.delete_ansiblerepository",
        "ansible.manage_roles_ansiblerepository",
        "ansible.modify_ansible_repo_content",
        "ansible.repair_ansiblerepository",
        "ansible.sign_ansiblerepository",
        "ansible.view_ansiblerepository",
        "ansible.delete_collection",
        "ansible.add_collectionremote",
        "ansible.change_collectionremote",
        "ansible.delete_collectionremote",
        "ansible.manage_roles_collectionremote",
        "ansible.view_collectionremote",
        "galaxy.add_namespace",
        "galaxy.change_namespace",
        "galaxy.delete_namespace",
        "galaxy.upload_to_namespace"
      ],
      "locked": true
    },
    {
      "pulp_href": "/api/galaxy/pulp/api/v3/roles/bdb8c2f0-b793-4a2e-886b-e670c84729d0/",
      "pulp_created": "2023-10-11T16:00:44.134557Z",
      "name": "galaxy.collection_curator",
      "description": null,
      "permissions": [
        "ansible.add_ansiblerepository",
        "ansible.change_ansiblerepository",
        "ansible.delete_ansiblerepository",
        "ansible.manage_roles_ansiblerepository",
        "ansible.modify_ansible_repo_content",
        "ansible.repair_ansiblerepository",
        "ansible.sign_ansiblerepository",
        "ansible.view_ansiblerepository",
        "ansible.add_collectionremote",
        "ansible.change_collectionremote",
        "ansible.delete_collectionremote",
        "ansible.manage_roles_collectionremote",
        "ansible.view_collectionremote"
      ],
      "locked": true
    },
    {
      "pulp_href": "/api/galaxy/pulp/api/v3/roles/f185c939-6175-48cc-8902-c9c3b784bf0f/",
      "pulp_created": "2023-10-11T16:00:44.195992Z",
      "name": "galaxy.collection_namespace_owner",
      "description": null,
      "permissions": ["galaxy.change_namespace", "galaxy.upload_to_namespace"],
      "locked": true
    },
    {
      "pulp_href": "/api/galaxy/pulp/api/v3/roles/f07946be-b33d-4464-85ea-9513bf8eae73/",
      "pulp_created": "2023-10-11T16:00:44.105462Z",
      "name": "galaxy.collection_publisher",
      "description": null,
      "permissions": [
        "galaxy.add_namespace",
        "galaxy.change_namespace",
        "galaxy.upload_to_namespace"
      ],
      "locked": true
    },
    {
      "pulp_href": "/api/galaxy/pulp/api/v3/roles/65687b29-84fd-4954-93bc-c8f7a05a2551/",
      "pulp_created": "2023-10-11T16:00:44.155819Z",
      "name": "galaxy.collection_remote_owner",
      "description": null,
      "permissions": [
        "ansible.add_collectionremote",
        "ansible.change_collectionremote",
        "ansible.delete_collectionremote",
        "ansible.manage_roles_collectionremote",
        "ansible.view_collectionremote"
      ],
      "locked": true
    },
    {
      "pulp_href": "/api/galaxy/pulp/api/v3/roles/19398b5e-d23e-484d-948c-483b16503844/",
      "pulp_created": "2023-10-11T16:00:44.053831Z",
      "name": "galaxy.content_admin",
      "description": null,
      "permissions": [
        "ansible.add_ansiblerepository",
        "ansible.change_ansiblerepository",
        "ansible.delete_ansiblerepository",
        "ansible.manage_roles_ansiblerepository",
        "ansible.modify_ansible_repo_content",
        "ansible.repair_ansiblerepository",
        "ansible.sign_ansiblerepository",
        "ansible.view_ansiblerepository",
        "ansible.delete_collection",
        "ansible.add_collectionremote",
        "ansible.change_collectionremote",
        "ansible.delete_collectionremote",
        "ansible.manage_roles_collectionremote",
        "ansible.view_collectionremote",
        "container.add_containernamespace",
        "container.change_containernamespace",
        "container.manage_roles_containernamespace",
        "container.namespace_add_containerdistribution",
        "container.namespace_change_containerdistribution",
        "container.namespace_modify_content_containerpushrepository",
        "container.namespace_push_containerdistribution",
        "container.delete_containerrepository",
        "galaxy.add_containerregistryremote",
        "galaxy.change_containerregistryremote",
        "galaxy.delete_containerregistryremote",
        "galaxy.add_namespace",
        "galaxy.change_namespace",
        "galaxy.delete_namespace",
        "galaxy.upload_to_namespace"
      ],
      "locked": true
    },
    {
      "pulp_href": "/api/galaxy/pulp/api/v3/roles/75ed025c-1c13-469b-83bd-9b718063645f/",
      "pulp_created": "2023-11-28T19:36:03.557948Z",
      "name": "galaxy.demorole",
      "description": "Demo Role",
      "permissions": [
        "ansible.delete_collection",
        "galaxy.add_namespace",
        "galaxy.delete_namespace"
      ],
      "locked": false
    },
    {
      "pulp_href": "/api/galaxy/pulp/api/v3/roles/6d45575d-c319-42bc-821b-a8a57fda9e79/",
      "pulp_created": "2023-10-11T16:00:44.228674Z",
      "name": "galaxy.execution_environment_admin",
      "description": null,
      "permissions": [
        "container.add_containernamespace",
        "container.change_containernamespace",
        "container.manage_roles_containernamespace",
        "container.namespace_add_containerdistribution",
        "container.namespace_change_containerdistribution",
        "container.namespace_modify_content_containerpushrepository",
        "container.namespace_push_containerdistribution",
        "container.delete_containerrepository",
        "galaxy.add_containerregistryremote",
        "galaxy.change_containerregistryremote",
        "galaxy.delete_containerregistryremote"
      ],
      "locked": true
    },
    {
      "pulp_href": "/api/galaxy/pulp/api/v3/roles/411a4573-3685-4989-93c3-0cf77d78da63/",
      "pulp_created": "2023-10-11T16:00:44.301041Z",
      "name": "galaxy.execution_environment_collaborator",
      "description": null,
      "permissions": [
        "container.namespace_change_containerdistribution",
        "container.namespace_modify_content_containerpushrepository",
        "container.namespace_push_containerdistribution"
      ],
      "locked": true
    }
  ]
}
