{
    "count": 292,
    "next": "/api/v2/teams/?order_by=name&page=3&page_size=10",
    "previous": "/api/v2/teams/?order_by=name&page=1&page_size=10",
    "results": [
        {
            "id": 2580,
            "type": "team",
            "url": "/api/v2/teams/2580/",
            "related": {
                "created_by": "/api/v2/users/2/",
                "modified_by": "/api/v2/users/2/",
                "projects": "/api/v2/teams/2580/projects/",
                "users": "/api/v2/teams/2580/users/",
                "credentials": "/api/v2/teams/2580/credentials/",
                "roles": "/api/v2/teams/2580/roles/",
                "object_roles": "/api/v2/teams/2580/object_roles/",
                "activity_stream": "/api/v2/teams/2580/activity_stream/",
                "access_list": "/api/v2/teams/2580/access_list/",
                "organization": "/api/v2/organizations/1/"
            },
            "summary_fields": {
                "organization": { "id": 1, "name": "Default", "description": "" },
                "created_by": { "id": 2, "username": "awx", "first_name": "", "last_name": "" },
                "modified_by": { "id": 2, "username": "awx", "first_name": "", "last_name": "" },
                "object_roles": {
                    "admin_role": { "description": "Can manage all aspects of the team", "name": "Admin", "id": 7797 },
                    "member_role": { "description": "User is a member of the team", "name": "Member", "id": 7798 },
                    "read_role": { "description": "May view settings for the team", "name": "Read", "id": 7799 }
                },
                "user_capabilities": { "edit": true, "delete": true }
            },
            "created": "2022-09-09T17:08:49.621169Z",
            "modified": "2022-09-09T17:08:49.621193Z",
            "name": "3SCNFw7J",
            "description": "",
            "organization": 1
        },
        {
            "id": 2575,
            "type": "team",
            "url": "/api/v2/teams/2575/",
            "related": {
                "created_by": "/api/v2/users/2/",
                "modified_by": "/api/v2/users/2/",
                "projects": "/api/v2/teams/2575/projects/",
                "users": "/api/v2/teams/2575/users/",
                "credentials": "/api/v2/teams/2575/credentials/",
                "roles": "/api/v2/teams/2575/roles/",
                "object_roles": "/api/v2/teams/2575/object_roles/",
                "activity_stream": "/api/v2/teams/2575/activity_stream/",
                "access_list": "/api/v2/teams/2575/access_list/",
                "organization": "/api/v2/organizations/1/"
            },
            "summary_fields": {
                "organization": { "id": 1, "name": "Default", "description": "" },
                "created_by": { "id": 2, "username": "awx", "first_name": "", "last_name": "" },
                "modified_by": { "id": 2, "username": "awx", "first_name": "", "last_name": "" },
                "object_roles": {
                    "admin_role": { "description": "Can manage all aspects of the team", "name": "Admin", "id": 7782 },
                    "member_role": { "description": "User is a member of the team", "name": "Member", "id": 7783 },
                    "read_role": { "description": "May view settings for the team", "name": "Read", "id": 7784 }
                },
                "user_capabilities": { "edit": true, "delete": true }
            },
            "created": "2022-09-09T17:08:49.376201Z",
            "modified": "2022-09-09T17:08:49.376227Z",
            "name": "44mBcqJY",
            "description": "",
            "organization": 1
        },
        {
            "id": 2605,
            "type": "team",
            "url": "/api/v2/teams/2605/",
            "related": {
                "created_by": "/api/v2/users/2/",
                "modified_by": "/api/v2/users/2/",
                "projects": "/api/v2/teams/2605/projects/",
                "users": "/api/v2/teams/2605/users/",
                "credentials": "/api/v2/teams/2605/credentials/",
                "roles": "/api/v2/teams/2605/roles/",
                "object_roles": "/api/v2/teams/2605/object_roles/",
                "activity_stream": "/api/v2/teams/2605/activity_stream/",
                "access_list": "/api/v2/teams/2605/access_list/",
                "organization": "/api/v2/organizations/1/"
            },
            "summary_fields": {
                "organization": { "id": 1, "name": "Default", "description": "" },
                "created_by": { "id": 2, "username": "awx", "first_name": "", "last_name": "" },
                "modified_by": { "id": 2, "username": "awx", "first_name": "", "last_name": "" },
                "object_roles": {
                    "admin_role": { "description": "Can manage all aspects of the team", "name": "Admin", "id": 7872 },
                    "member_role": { "description": "User is a member of the team", "name": "Member", "id": 7873 },
                    "read_role": { "description": "May view settings for the team", "name": "Read", "id": 7874 }
                },
                "user_capabilities": { "edit": true, "delete": true }
            },
            "created": "2022-09-09T17:08:50.784934Z",
            "modified": "2022-09-09T17:08:50.784961Z",
            "name": "4GDs7TZI",
            "description": "",
            "organization": 1
        },
        {
            "id": 2449,
            "type": "team",
            "url": "/api/v2/teams/2449/",
            "related": {
                "created_by": "/api/v2/users/2/",
                "modified_by": "/api/v2/users/2/",
                "projects": "/api/v2/teams/2449/projects/",
                "users": "/api/v2/teams/2449/users/",
                "credentials": "/api/v2/teams/2449/credentials/",
                "roles": "/api/v2/teams/2449/roles/",
                "object_roles": "/api/v2/teams/2449/object_roles/",
                "activity_stream": "/api/v2/teams/2449/activity_stream/",
                "access_list": "/api/v2/teams/2449/access_list/",
                "organization": "/api/v2/organizations/1/"
            },
            "summary_fields": {
                "organization": { "id": 1, "name": "Default", "description": "" },
                "created_by": { "id": 2, "username": "awx", "first_name": "", "last_name": "" },
                "modified_by": { "id": 2, "username": "awx", "first_name": "", "last_name": "" },
                "object_roles": {
                    "admin_role": { "description": "Can manage all aspects of the team", "name": "Admin", "id": 7404 },
                    "member_role": { "description": "User is a member of the team", "name": "Member", "id": 7405 },
                    "read_role": { "description": "May view settings for the team", "name": "Read", "id": 7406 }
                },
                "user_capabilities": { "edit": true, "delete": true }
            },
            "created": "2022-09-09T17:08:41.000516Z",
            "modified": "2022-09-09T17:08:41.000569Z",
            "name": "4oPj2YeQ",
            "description": "",
            "organization": 1
        },
        {
            "id": 2572,
            "type": "team",
            "url": "/api/v2/teams/2572/",
            "related": {
                "created_by": "/api/v2/users/2/",
                "modified_by": "/api/v2/users/2/",
                "projects": "/api/v2/teams/2572/projects/",
                "users": "/api/v2/teams/2572/users/",
                "credentials": "/api/v2/teams/2572/credentials/",
                "roles": "/api/v2/teams/2572/roles/",
                "object_roles": "/api/v2/teams/2572/object_roles/",
                "activity_stream": "/api/v2/teams/2572/activity_stream/",
                "access_list": "/api/v2/teams/2572/access_list/",
                "organization": "/api/v2/organizations/1/"
            },
            "summary_fields": {
                "organization": { "id": 1, "name": "Default", "description": "" },
                "created_by": { "id": 2, "username": "awx", "first_name": "", "last_name": "" },
                "modified_by": { "id": 2, "username": "awx", "first_name": "", "last_name": "" },
                "object_roles": {
                    "admin_role": { "description": "Can manage all aspects of the team", "name": "Admin", "id": 7773 },
                    "member_role": { "description": "User is a member of the team", "name": "Member", "id": 7774 },
                    "read_role": { "description": "May view settings for the team", "name": "Read", "id": 7775 }
                },
                "user_capabilities": { "edit": true, "delete": true }
            },
            "created": "2022-09-09T17:08:49.223893Z",
            "modified": "2022-09-09T17:08:49.223919Z",
            "name": "4VczBXcn",
            "description": "",
            "organization": 1
        },
        {
            "id": 2418,
            "type": "team",
            "url": "/api/v2/teams/2418/",
            "related": {
                "created_by": "/api/v2/users/2/",
                "modified_by": "/api/v2/users/2/",
                "projects": "/api/v2/teams/2418/projects/",
                "users": "/api/v2/teams/2418/users/",
                "credentials": "/api/v2/teams/2418/credentials/",
                "roles": "/api/v2/teams/2418/roles/",
                "object_roles": "/api/v2/teams/2418/object_roles/",
                "activity_stream": "/api/v2/teams/2418/activity_stream/",
                "access_list": "/api/v2/teams/2418/access_list/",
                "organization": "/api/v2/organizations/1/"
            },
            "summary_fields": {
                "organization": { "id": 1, "name": "Default", "description": "" },
                "created_by": { "id": 2, "username": "awx", "first_name": "", "last_name": "" },
                "modified_by": { "id": 2, "username": "awx", "first_name": "", "last_name": "" },
                "object_roles": {
                    "admin_role": { "description": "Can manage all aspects of the team", "name": "Admin", "id": 7311 },
                    "member_role": { "description": "User is a member of the team", "name": "Member", "id": 7313 },
                    "read_role": { "description": "May view settings for the team", "name": "Read", "id": 7314 }
                },
                "user_capabilities": { "edit": true, "delete": true }
            },
            "created": "2022-09-09T17:08:39.446663Z",
            "modified": "2022-09-09T17:08:39.446685Z",
            "name": "5LuqAskD",
            "description": "",
            "organization": 1
        },
        {
            "id": 2538,
            "type": "team",
            "url": "/api/v2/teams/2538/",
            "related": {
                "created_by": "/api/v2/users/2/",
                "modified_by": "/api/v2/users/2/",
                "projects": "/api/v2/teams/2538/projects/",
                "users": "/api/v2/teams/2538/users/",
                "credentials": "/api/v2/teams/2538/credentials/",
                "roles": "/api/v2/teams/2538/roles/",
                "object_roles": "/api/v2/teams/2538/object_roles/",
                "activity_stream": "/api/v2/teams/2538/activity_stream/",
                "access_list": "/api/v2/teams/2538/access_list/",
                "organization": "/api/v2/organizations/1/"
            },
            "summary_fields": {
                "organization": { "id": 1, "name": "Default", "description": "" },
                "created_by": { "id": 2, "username": "awx", "first_name": "", "last_name": "" },
                "modified_by": { "id": 2, "username": "awx", "first_name": "", "last_name": "" },
                "object_roles": {
                    "admin_role": { "description": "Can manage all aspects of the team", "name": "Admin", "id": 7671 },
                    "member_role": { "description": "User is a member of the team", "name": "Member", "id": 7672 },
                    "read_role": { "description": "May view settings for the team", "name": "Read", "id": 7673 }
                },
                "user_capabilities": { "edit": true, "delete": true }
            },
            "created": "2022-09-09T17:08:47.576396Z",
            "modified": "2022-09-09T17:08:47.576677Z",
            "name": "5St8YvsY",
            "description": "",
            "organization": 1
        },
        {
            "id": 2427,
            "type": "team",
            "url": "/api/v2/teams/2427/",
            "related": {
                "created_by": "/api/v2/users/2/",
                "modified_by": "/api/v2/users/2/",
                "projects": "/api/v2/teams/2427/projects/",
                "users": "/api/v2/teams/2427/users/",
                "credentials": "/api/v2/teams/2427/credentials/",
                "roles": "/api/v2/teams/2427/roles/",
                "object_roles": "/api/v2/teams/2427/object_roles/",
                "activity_stream": "/api/v2/teams/2427/activity_stream/",
                "access_list": "/api/v2/teams/2427/access_list/",
                "organization": "/api/v2/organizations/1/"
            },
            "summary_fields": {
                "organization": { "id": 1, "name": "Default", "description": "" },
                "created_by": { "id": 2, "username": "awx", "first_name": "", "last_name": "" },
                "modified_by": { "id": 2, "username": "awx", "first_name": "", "last_name": "" },
                "object_roles": {
                    "admin_role": { "description": "Can manage all aspects of the team", "name": "Admin", "id": 7338 },
                    "member_role": { "description": "User is a member of the team", "name": "Member", "id": 7339 },
                    "read_role": { "description": "May view settings for the team", "name": "Read", "id": 7340 }
                },
                "user_capabilities": { "edit": true, "delete": true }
            },
            "created": "2022-09-09T17:08:39.760562Z",
            "modified": "2022-09-09T17:08:39.760588Z",
            "name": "6lNcmSmi",
            "description": "",
            "organization": 1
        },
        {
            "id": 2518,
            "type": "team",
            "url": "/api/v2/teams/2518/",
            "related": {
                "created_by": "/api/v2/users/2/",
                "modified_by": "/api/v2/users/2/",
                "projects": "/api/v2/teams/2518/projects/",
                "users": "/api/v2/teams/2518/users/",
                "credentials": "/api/v2/teams/2518/credentials/",
                "roles": "/api/v2/teams/2518/roles/",
                "object_roles": "/api/v2/teams/2518/object_roles/",
                "activity_stream": "/api/v2/teams/2518/activity_stream/",
                "access_list": "/api/v2/teams/2518/access_list/",
                "organization": "/api/v2/organizations/1/"
            },
            "summary_fields": {
                "organization": { "id": 1, "name": "Default", "description": "" },
                "created_by": { "id": 2, "username": "awx", "first_name": "", "last_name": "" },
                "modified_by": { "id": 2, "username": "awx", "first_name": "", "last_name": "" },
                "object_roles": {
                    "admin_role": { "description": "Can manage all aspects of the team", "name": "Admin", "id": 7611 },
                    "member_role": { "description": "User is a member of the team", "name": "Member", "id": 7612 },
                    "read_role": { "description": "May view settings for the team", "name": "Read", "id": 7613 }
                },
                "user_capabilities": { "edit": true, "delete": true }
            },
            "created": "2022-09-09T17:08:46.356811Z",
            "modified": "2022-09-09T17:08:46.356993Z",
            "name": "6nBLx4ok",
            "description": "",
            "organization": 1
        },
        {
            "id": 2476,
            "type": "team",
            "url": "/api/v2/teams/2476/",
            "related": {
                "created_by": "/api/v2/users/2/",
                "modified_by": "/api/v2/users/2/",
                "projects": "/api/v2/teams/2476/projects/",
                "users": "/api/v2/teams/2476/users/",
                "credentials": "/api/v2/teams/2476/credentials/",
                "roles": "/api/v2/teams/2476/roles/",
                "object_roles": "/api/v2/teams/2476/object_roles/",
                "activity_stream": "/api/v2/teams/2476/activity_stream/",
                "access_list": "/api/v2/teams/2476/access_list/",
                "organization": "/api/v2/organizations/1/"
            },
            "summary_fields": {
                "organization": { "id": 1, "name": "Default", "description": "" },
                "created_by": { "id": 2, "username": "awx", "first_name": "", "last_name": "" },
                "modified_by": { "id": 2, "username": "awx", "first_name": "", "last_name": "" },
                "object_roles": {
                    "admin_role": { "description": "Can manage all aspects of the team", "name": "Admin", "id": 7485 },
                    "member_role": { "description": "User is a member of the team", "name": "Member", "id": 7486 },
                    "read_role": { "description": "May view settings for the team", "name": "Read", "id": 7487 }
                },
                "user_capabilities": { "edit": true, "delete": true }
            },
            "created": "2022-09-09T17:08:42.109322Z",
            "modified": "2022-09-09T17:08:42.109346Z",
            "name": "6wHadOao",
            "description": "",
            "organization": 1
        }
    ]
}
