{
  "count": 48,
  "next": "/api/v2/users/?page=2",
  "previous": null,
  "results": [
    {
      "id": 1,
      "type": "user",
      "url": "/api/v2/users/1/",
      "related": {
        "teams": "/api/v2/users/1/teams/",
        "organizations": "/api/v2/users/1/organizations/",
        "admin_of_organizations": "/api/v2/users/1/admin_of_organizations/",
        "projects": "/api/v2/users/1/projects/",
        "credentials": "/api/v2/users/1/credentials/",
        "roles": "/api/v2/users/1/roles/",
        "activity_stream": "/api/v2/users/1/activity_stream/",
        "access_list": "/api/v2/users/1/access_list/",
        "tokens": "/api/v2/users/1/tokens/",
        "authorized_tokens": "/api/v2/users/1/authorized_tokens/",
        "personal_tokens": "/api/v2/users/1/personal_tokens/"
      },
      "summary_fields": {
        "user_capabilities": {
          "edit": true,
          "delete": true
        }
      },
      "created": "2024-04-08T12:50:59.767346Z",
      "modified": null,
      "username": "admin",
      "first_name": "",
      "last_name": "",
      "email": "test@example.com",
      "is_superuser": true,
      "is_system_auditor": false,
      "password": "$encrypted$",
      "ldap_dn": "",
      "last_login": null,
      "external_account": null,
      "auth": []
    },
    {
      "id": 4,
      "type": "user",
      "url": "/api/v2/users/4/",
      "related": {
        "teams": "/api/v2/users/4/teams/",
        "organizations": "/api/v2/users/4/organizations/",
        "admin_of_organizations": "/api/v2/users/4/admin_of_organizations/",
        "projects": "/api/v2/users/4/projects/",
        "credentials": "/api/v2/users/4/credentials/",
        "roles": "/api/v2/users/4/roles/",
        "activity_stream": "/api/v2/users/4/activity_stream/",
        "access_list": "/api/v2/users/4/access_list/",
        "tokens": "/api/v2/users/4/tokens/",
        "authorized_tokens": "/api/v2/users/4/authorized_tokens/",
        "personal_tokens": "/api/v2/users/4/personal_tokens/"
      },
      "summary_fields": {
        "user_capabilities": {
          "edit": true,
          "delete": true
        }
      },
      "created": "2024-04-08T12:52:42.242505Z",
      "modified": "2024-04-09T19:30:33.088716Z",
      "username": "e2e",
      "first_name": "",
      "last_name": "",
      "email": "",
      "is_superuser": true,
      "is_system_auditor": false,
      "password": "$encrypted$",
      "ldap_dn": "",
      "last_login": "2024-04-09T19:30:33.088716Z",
      "external_account": null,
      "auth": []
    },
    {
      "id": 9,
      "type": "user",
      "url": "/api/v2/users/9/",
      "related": {
        "teams": "/api/v2/users/9/teams/",
        "organizations": "/api/v2/users/9/organizations/",
        "admin_of_organizations": "/api/v2/users/9/admin_of_organizations/",
        "projects": "/api/v2/users/9/projects/",
        "credentials": "/api/v2/users/9/credentials/",
        "roles": "/api/v2/users/9/roles/",
        "activity_stream": "/api/v2/users/9/activity_stream/",
        "access_list": "/api/v2/users/9/access_list/",
        "tokens": "/api/v2/users/9/tokens/",
        "authorized_tokens": "/api/v2/users/9/authorized_tokens/",
        "personal_tokens": "/api/v2/users/9/personal_tokens/"
      },
      "summary_fields": {
        "user_capabilities": {
          "edit": true,
          "delete": true
        }
      },
      "created": "2024-04-08T16:01:13.686873Z",
      "modified": null,
      "username": "e2e-user-avAE",
      "first_name": "",
      "last_name": "",
      "email": "",
      "is_superuser": false,
      "is_system_auditor": false,
      "password": "$encrypted$",
      "ldap_dn": "",
      "last_login": null,
      "external_account": null,
      "auth": []
    },
    {
      "id": 20,
      "type": "user",
      "url": "/api/v2/users/20/",
      "related": {
        "teams": "/api/v2/users/20/teams/",
        "organizations": "/api/v2/users/20/organizations/",
        "admin_of_organizations": "/api/v2/users/20/admin_of_organizations/",
        "projects": "/api/v2/users/20/projects/",
        "credentials": "/api/v2/users/20/credentials/",
        "roles": "/api/v2/users/20/roles/",
        "activity_stream": "/api/v2/users/20/activity_stream/",
        "access_list": "/api/v2/users/20/access_list/",
        "tokens": "/api/v2/users/20/tokens/",
        "authorized_tokens": "/api/v2/users/20/authorized_tokens/",
        "personal_tokens": "/api/v2/users/20/personal_tokens/"
      },
      "summary_fields": {
        "user_capabilities": {
          "edit": true,
          "delete": true
        }
      },
      "created": "2024-04-09T08:13:37.515778Z",
      "modified": null,
      "username": "e2e-user-CpgT",
      "first_name": "",
      "last_name": "",
      "email": "",
      "is_superuser": false,
      "is_system_auditor": false,
      "password": "$encrypted$",
      "ldap_dn": "",
      "last_login": null,
      "external_account": null,
      "auth": []
    },
    {
      "id": 118,
      "type": "user",
      "url": "/api/v2/users/118/",
      "related": {
        "teams": "/api/v2/users/118/teams/",
        "organizations": "/api/v2/users/118/organizations/",
        "admin_of_organizations": "/api/v2/users/118/admin_of_organizations/",
        "projects": "/api/v2/users/118/projects/",
        "credentials": "/api/v2/users/118/credentials/",
        "roles": "/api/v2/users/118/roles/",
        "activity_stream": "/api/v2/users/118/activity_stream/",
        "access_list": "/api/v2/users/118/access_list/",
        "tokens": "/api/v2/users/118/tokens/",
        "authorized_tokens": "/api/v2/users/118/authorized_tokens/",
        "personal_tokens": "/api/v2/users/118/personal_tokens/"
      },
      "summary_fields": {
        "user_capabilities": {
          "edit": true,
          "delete": true
        }
      },
      "created": "2024-04-09T16:11:02.412736Z",
      "modified": null,
      "username": "e2e-user-CqFR",
      "first_name": "",
      "last_name": "",
      "email": "",
      "is_superuser": false,
      "is_system_auditor": false,
      "password": "$encrypted$",
      "ldap_dn": "",
      "last_login": null,
      "external_account": null,
      "auth": []
    },
    {
      "id": 160,
      "type": "user",
      "url": "/api/v2/users/160/",
      "related": {
        "teams": "/api/v2/users/160/teams/",
        "organizations": "/api/v2/users/160/organizations/",
        "admin_of_organizations": "/api/v2/users/160/admin_of_organizations/",
        "projects": "/api/v2/users/160/projects/",
        "credentials": "/api/v2/users/160/credentials/",
        "roles": "/api/v2/users/160/roles/",
        "activity_stream": "/api/v2/users/160/activity_stream/",
        "access_list": "/api/v2/users/160/access_list/",
        "tokens": "/api/v2/users/160/tokens/",
        "authorized_tokens": "/api/v2/users/160/authorized_tokens/",
        "personal_tokens": "/api/v2/users/160/personal_tokens/"
      },
      "summary_fields": {
        "user_capabilities": {
          "edit": true,
          "delete": true
        }
      },
      "created": "2024-04-09T16:19:14.717968Z",
      "modified": null,
      "username": "e2e-user-Djka",
      "first_name": "",
      "last_name": "",
      "email": "",
      "is_superuser": false,
      "is_system_auditor": false,
      "password": "$encrypted$",
      "ldap_dn": "",
      "last_login": null,
      "external_account": null,
      "auth": []
    },
    {
      "id": 89,
      "type": "user",
      "url": "/api/v2/users/89/",
      "related": {
        "teams": "/api/v2/users/89/teams/",
        "organizations": "/api/v2/users/89/organizations/",
        "admin_of_organizations": "/api/v2/users/89/admin_of_organizations/",
        "projects": "/api/v2/users/89/projects/",
        "credentials": "/api/v2/users/89/credentials/",
        "roles": "/api/v2/users/89/roles/",
        "activity_stream": "/api/v2/users/89/activity_stream/",
        "access_list": "/api/v2/users/89/access_list/",
        "tokens": "/api/v2/users/89/tokens/",
        "authorized_tokens": "/api/v2/users/89/authorized_tokens/",
        "personal_tokens": "/api/v2/users/89/personal_tokens/"
      },
      "summary_fields": {
        "user_capabilities": {
          "edit": true,
          "delete": true
        }
      },
      "created": "2024-04-09T16:03:07.715669Z",
      "modified": null,
      "username": "e2e-user-dmRo",
      "first_name": "",
      "last_name": "",
      "email": "",
      "is_superuser": false,
      "is_system_auditor": false,
      "password": "$encrypted$",
      "ldap_dn": "",
      "last_login": null,
      "external_account": null,
      "auth": []
    },
    {
      "id": 26,
      "type": "user",
      "url": "/api/v2/users/26/",
      "related": {
        "teams": "/api/v2/users/26/teams/",
        "organizations": "/api/v2/users/26/organizations/",
        "admin_of_organizations": "/api/v2/users/26/admin_of_organizations/",
        "projects": "/api/v2/users/26/projects/",
        "credentials": "/api/v2/users/26/credentials/",
        "roles": "/api/v2/users/26/roles/",
        "activity_stream": "/api/v2/users/26/activity_stream/",
        "access_list": "/api/v2/users/26/access_list/",
        "tokens": "/api/v2/users/26/tokens/",
        "authorized_tokens": "/api/v2/users/26/authorized_tokens/",
        "personal_tokens": "/api/v2/users/26/personal_tokens/"
      },
      "summary_fields": {
        "user_capabilities": {
          "edit": true,
          "delete": true
        }
      },
      "created": "2024-04-09T08:37:55.783223Z",
      "modified": null,
      "username": "e2e-user-dsmg",
      "first_name": "",
      "last_name": "",
      "email": "",
      "is_superuser": false,
      "is_system_auditor": false,
      "password": "$encrypted$",
      "ldap_dn": "",
      "last_login": null,
      "external_account": null,
      "auth": []
    },
    {
      "id": 104,
      "type": "user",
      "url": "/api/v2/users/104/",
      "related": {
        "teams": "/api/v2/users/104/teams/",
        "organizations": "/api/v2/users/104/organizations/",
        "admin_of_organizations": "/api/v2/users/104/admin_of_organizations/",
        "projects": "/api/v2/users/104/projects/",
        "credentials": "/api/v2/users/104/credentials/",
        "roles": "/api/v2/users/104/roles/",
        "activity_stream": "/api/v2/users/104/activity_stream/",
        "access_list": "/api/v2/users/104/access_list/",
        "tokens": "/api/v2/users/104/tokens/",
        "authorized_tokens": "/api/v2/users/104/authorized_tokens/",
        "personal_tokens": "/api/v2/users/104/personal_tokens/"
      },
      "summary_fields": {
        "user_capabilities": {
          "edit": true,
          "delete": true
        }
      },
      "created": "2024-04-09T16:07:08.932763Z",
      "modified": null,
      "username": "e2e-user-EHei",
      "first_name": "",
      "last_name": "",
      "email": "",
      "is_superuser": false,
      "is_system_auditor": false,
      "password": "$encrypted$",
      "ldap_dn": "",
      "last_login": null,
      "external_account": null,
      "auth": []
    }
  ]
}
